Automating PDF Retrieval from Websites
…
# combine opinion documents
opinion_all <- bind_rows(opinion, opinion_126)

Now, lets add the page number variable. The following code takes the data and uses groupy_by() to partition the rows into exclusive sets based upon the CCNE opinion in which they are found. There will be two groups in our case because we only have two opinions, but, if for example we had all of them, there would be almost 130 groups. mutate() then adds a variable called page_num that corresponds to the page number within each group/opinion.

# add page number within each opinion
opinion_all <- opinion_all %>% 
  group_by(opinion) %>% 
  mutate(page_num = row_number())

# check out new variable
opinion_all

## # A tibble: 101 x 3
## # Groups:   opinion [2]
##    page_content                                           opinion page_num
##    <chr>                                                  <chr>      <int>
##  1 "                                     National Consul 127            1
##  2 "                                     SUMMARY OF THE  127            2
##  3 "institutions: hostile reactions to migrants from pat 127            3
##  4 "                                           TEXT OF T 127            4
##  5 "I  CCNE findings\nMigrant presence and precariousne 127            5
##  6 "But this extension of rights is also reversible: an  127            6
##  7 "It is true that many of these population shifts are  127            7
##  8 "to be exact, the proportion of illegal aliens residi 127            8
##  9 "Neither the systems for temporary shelter  if they  127            9
## 10 "The hearings CCNE initiated have convinced us that,  127           10
## # ... with 91 more rows

Now for the line numbers: Recall that lines are indicated by . Creating a variable for the page number was quite straightforward because the pages corresponded to rows, but now that is not the case. We will use the tidytext package (specifically, the unnest_tokens() function) to split the page_content cells into multiple rows and then create a new variable line_num. Note that, if there were variables for each row when rows corresponded to a page, their contents would be copied to each new row that comes from the respective previous row.

# add page number within each opinion
opinion_all <- opinion_all %>% 
  unnest_tokens(line_content, page_content, # line_content is a new variable
                token = stringr::str_split, pattern = "\n") %>%  
  group_by(opinion, page_num) %>% 
  mutate(line_num = row_number())

# check out new variable
opinion_all

## # A tibble: 4,494 x 4
## # Groups:   opinion, page_num [101]
##    opinion page_num line_content                                  line_num
##    <chr>      <int> <chr>                                            <int>
##  1 127            1 "                                     nation        1
##  2 127            1 "                                     35, ru        2
##  3 127            1 "                                     75700         3
##  4 127            1 "                                     tl. 0        4
##  5 127            1 "                                     www.cc        5
##  6 127            1 "                                                   6
##  7 127            1 "                             migrants heal        7
##  8 127            1 "                                       comp        8
##  9 127            1 "                                                   9
## 10 127            1 "                                                  10
## # ... with 4,484 more rows

Finally, lets unnest once more in order to get one word per row.

Finally, lets unnest this result into an object where rows are single words.

# unnest to word rows
opinion_all <- opinion_all %>% 
  unnest_tokens(word, line_content)

# print result
opinion_all

## # A tibble: 55,998 x 4
## # Groups:   opinion, page_num [101]
##    opinion page_num line_num word        
##    <chr>      <int>    <int> <chr>       
##  1 127            1        1 national    
##  2 127            1        1 consultative
##  3 127            1        1 ethics      
##  4 127            1        1 committee   
##  5 127            1        1 for         
##  6 127            1        1 health      
##  7 127            1        1 and         
##  8 127            1        1 life        
##  9 127            1        1 sciences    
## 10 127            1        2 35          
## # ... with 55,988 more rows
…
